…
### 特定時点の市区町村コードの取得

``` r
tibble(city = get_city("2020-01-01"))
#> # A tibble: 1,923 × 1
#>    city                      
#>    <city>                    
#>  1 01100 [北海道札幌市]      
#>  2 01101 [北海道札幌市中央区]
#>  3 01102 [北海道札幌市北区]  
#>  4 01103 [北海道札幌市東区]  
#>  5 01104 [北海道札幌市白石区]
#>  6 01105 [北海道札幌市豊平区]
#>  7 01106 [北海道札幌市南区]  
#>  8 01107 [北海道札幌市西区]  
#>  9 01108 [北海道札幌市厚別区]
#> 10 01109 [北海道札幌市手稲区]
#> # ℹ 1,913 more rows
```

``` r

tibble(city = get_city("1970-04-01"))
#> # A tibble: 3,376 × 1
#>    city                  
#>    <city>                
#>  1 01201 [北海道札幌市]  
#>  2 01202 [北海道函館市]  
#>  3 01203 [北海道小樽市]  
#>  4 01204 [北海道旭川市]  
#>  5 01205 [北海道室蘭市]  
#>  6 01206 [北海道釧路市]  
#>  7 01207 [北海道帯広市]  
#>  8 01208 [北海道北見市]  
#>  9 01209 [北海道夕張市]  
#> 10 01210 [北海道岩見沢市]
#> # ℹ 3,366 more rows
```
…
